category,product_name,price_ex_vat,price_inc_vat,product_code,overview,depth,length,width,material,kiln dried,finish,style,type,manufacturer model no,brand name
Stair Parts,Richard Burbidge White Oak Baserail 4200mm WOBR2400/41,120.77,144.92,349524,"An ever popular baserail design that is manufactured from high quality White Oak. The baserail is supplied with a 41mm groove that can accommodate a wide range of Richard Burbidge spindle designs and is 4200mm in length.
Baserail used to fit balusters/spindles to
Fillets are included in the pack
Can be stained and varnished to a good finish
High quality, straight grained timber
Fully tested when installed in conjunction with Richard Burbidge fitting instructions",28 mm,4200 mm,63 mm,White Oak,Yes,Planed Smooth,Traditional,Baserail,WOBR4200/41,Richard Burbidge
