category,product_name,price_ex_vat,price_inc_vat,product_code,overview,interior or exterior use,colour,size,container type,type,brand name,data_sheets
PVA,UniBond Super PVA Building Adhesive 10L,33.29,39.95,612988,"UniBond PVA is super because it is independently tested and approved, it is recommended for professionals by professionals and UniBond have more than 50 years experience in the PVA market.
Can be used for bonding ceramic tiles, carpets, plaster, paper, glass, wood, chipboard, fabrics etc
Dilutes up to 5:1 with water
High bond strength
Only BBA accredited PVA on the UK market
Conforms to BS EN 204 Woodworking
Conforms to BS 5270 Plastering
Waterproof",Interior,White,10 L,Bucket,PVA,UniBond,"//travisperkins.scene7.com/is/content/travisperkins/PVA-UniBond-Super-PVA-Building-Adhesive-10L~H4715_612988_COSHH_0
"
