category,product_name,price_ex_vat,price_inc_vat,product_code,overview,length,head type,drive type,gauge,finish,interior or exterior use,type,made to order,manufacturer model no,brand name
Coach Screws,Coach Screw M10 x 65mm Metric Hexagon DIN Spec BZP,20.80,24.96,944395,"Heavy duty Hexagonal headed screws.
Used to fix heavy pieces of timber together and other heavy carpentry applications
Hexagonal head for use with spanner or socket drivers
Coarse single thread
Zinc plated for increased corrosion resistance
Manufactured to DIN 571",65 mm,Hexagon,Hex,M10,Zinc,Both,Coach Screw,N,^HXC10 065      00,Owletts
