category,product_name,price_ex_vat,price_inc_vat,product_code,overview,depth,width,type,material,kiln dried,profile,pattern,finish,certifications met,brand name
Timber Skirting Board,Skirting Board Timber Chamfered & Pencil Round Best Pattern 108 19mm x 100mm - Finished Size 14.5mm x 94mm,3.82,4.58,158004,"Manufactured from high quality Scandinavian unsorted quality redwood (pine). Sizes stated are Nominal, finished sizes are approx 5-6mm smaller.
All of our softwoods are responsibly sourced
Many other patterns and sizes available to order
Also available low pressure preservative treated (subject to minimum order)
Also available primed (subject to minimum order)
Due to the machining process, this product's finished dimensions will be smaller than the nominal sizes stated. Typically, 5 to 6mm less on the thickness and 5 to 8mm on width (dependent on original section)
Range of lengths normally available: random 1.8m and longer",19 mm,100 mm,Chamfered and Rounded Skirting Board,Pine,Yes,Large Round,108B,Unfinished,Available Certified,TP
