category,product_name,price_ex_vat,price_inc_vat,product_code,overview,depth,height,width,dhw output,sedbuk sap 2009 rating,heat output,noise level,nox class,type,years guaranteed,registered with the energy savings trust,made to order,manufacturer model no,brand name,range description
Combi Gas Boilers,Potterton Promax 7219462 24 Store Erp,"1,171.85","1,406.22",119815,"The Potterton Promax Store is a boiler and hot water storage cylinder in one, designed to fit easily in an airing cupboard.
Available in 90, 115 or 150 litre stores meeting the most demanding hot water requirements
Fully modulating and highly efficient boiler that intelligently uses the right amount of fuel to meet the set central heating temperature
Unique roller system and low lift weight making it easier to move and install
Integral condensate pump making it easier to install
Built-in two stage frost protection so it can be installed in basements or garages
Flueing options up to 10m
Fully pumped sealed system so that no tanks are required in the loft
Domestic hot water priority system providing plenty of hot water, whenever you need it,
7 day digital easy to use programmer that is factory fitted for quicker installation",620 mm,520 mm,550 mm,24 kW,A,24 kW,58 dB,5,Storage,1,Yes,N,7219462,Potterton,Promax
