category,product_name,product_code,price_ex_vat,price_inc_vat,overview,depth,height,width,capacity,weight,material,colour,finish,entry direction,style,years guaranteed,made to order,manufacturer model no,country origin,brand name,range description,data_sheets
Toilet Cisterns,Vitra Serenada Close Coupled Cistern Top Flush (Cistern Only) 4161B003-5340,732163,119.15,142.98,"A classical style suite to suit all types of home sitting perfectly between traditional and contemporary suites made from ceramic with subtle detailing around the cistern with pre fitted cistern for ease of installation.
Pre fitted cistern fittings
Top Flush
Dual Flush
Cistern lid cast with tank
Can be used with either open or closed back pans",195 mm,395 mm,410 mm,6 L,16.97 kg,Ceramic,White,Glazed,Bottom,Classic,10,N,4161B003-5340,Turkey,VitrA,Serenada,"//travisperkins.scene7.com/is/content/travisperkins/Toilet-Cisterns-Vitra-Serenada-Close-Coupled-Cistern-Top-Flush-Cistern-Only-4161B003-5340~V0585_732163_TECH_0
"
