category,product_name,product_code,price_ex_vat,price_inc_vat,overview,height,length,width,weight,colour,material,years guaranteed,type,made to order,manufacturer model no,brand name,range description,data_sheets
Soap Dishes & Dispensers,Roca 816683001 Victoria Chrome Soap Dish,737186,32.43,38.92,"With their classic lines Victoria accessories add a touch of elegance to your bathroom space. There is also the option of fixing with either screws or adhesive, the latter withstanding loads of up to 5kg, meaning they can be installed without drilling into tiles and removed at a later date without leaving unsightly holes.
Dual fixing - fix with screws or adhesive
Classic lines to suit any bathroom
Other options available for the bathroom
Chrome",50 mm,110 mm,110 mm,0.59 kg,Chrome,Metal,2,Soap Dish,N,816683001,Roca,Victoria,"//travisperkins.scene7.com/is/content/travisperkins/Soap-Dishes-Dispensers-Roca-816683001-Victoria-Chrome-Soap-Dish~R0487_737186_TECH_0
"
Soap Dishes & Dispensers,Roca 816701001 Twin Chrome Soap Dish,737143,34.76,41.71,"Twin accessories have the option of fixing with either screws or adhesive, the alter withstanding loads of up to 5kg and meaning that they can be installed without drilling into tiles and removed at a later date without leaving any unsightly holes.
Dual fixing - fix with screws or adhesive
Soft round look for any bathroom space
Other options available for the bathroom
Chrome",45 mm,105 mm,105 mm,0.543 kg,Chrome,Metal,2,Soap Dish,N,816701001,Roca,Twin,"//travisperkins.scene7.com/is/content/travisperkins/Soap-Dishes-Dispensers-Roca-816701001-Twin-Chrome-Soap-Dish~R0487_737143_TECH_0
"
