category,product_name,product_code,price_ex_vat,price_inc_vat,overview,height,length,width,weight,capacity,material,number of tap holes,type,years guaranteed,made to order,manufacturer model no,country origin,brand name,range description,depth,style,data_sheets
Bath Tubs,"Roca Z027740000 Seville Contract Bath 1700 x 700mm, 2 Tap Holes",127726,279.23,335.08,"Seville provides a comfortable bathing experience. Eco options are available helping you to save water.
Acrylic bath
2 taphole bath
Plain bath base
Supplied with adjustable legs
Compatible panels available as optional extras
1700 x 700mm bath
25 year guarantee
Scratch, stain, impact, chemical, acid and UV resistant
Timeless design
Heat conducting",400 mm,1700 mm,700 mm,18 kg,200 L,Acrylic,2,Straight,25,N,Z027740000,Spain,Roca,Seville,,,
Bath Tubs,Roca Contesa Anti-slip Bath White 1700mm x 700mm A2370J3000,571081,162.65,195.18,"This Contesa bath collection is instantly recognisable because of the femininity of its design and the sobriety of its finish. Refined lines where functionality and elegance go hand in hand in a perfect and thoughtprovoking balance.
Standard gauge steel bath - 2mm
2 taphole bath
Antislip base
Choice of legsets - Legsets to be ordered seperately
1700 x 700mm bath
25 year guarantee
Scratch, stain, impact, chemical, acid and UV resistant
Timeless design
Heat conducting",400 mm,1700 mm,700 mm,34 kg,195 L,Steel,2,Straight,25,N,A2370J3000,Spain,Roca,Contesa,,,
Bath Tubs,Twyford Celtic Steel Bath Only 1700 BL1502WH,538453,166.09,199.31,"Sturdy and rigid, Twyford's White Celtic Steel Bath is manufactured from durable, high quality material and comes with a 25 year manufacturer guarantee. It  includes two tap holes, hand grips, fast fix leg set. The Celtic general purpose Bath from Twyford also features antislip properties and is suitable if showering over the bath or in high use environments.
2 Tapholes
Standard gauge 1.5mm pressed steel (Enamelled to BS1344 (0.3mm))
Suitable if showering over the bath or in high use environments
25 years warranrty",,,,,,,,,,,,,Twyford Bathrooms,,,,
Bath Tubs,Vitra Neon Luxury Bath 1700mm x 700mm,732125,274.17,329.00,"Luxury bath with extra depth and easy clean acrylic surface fully reinforced with 100% polyester and hand rolled with encapsulated base board and frame.
Reinforced with 100% polyester coating
All baths are hand rolled ensuring they do not delaminate
Fully encapsulated baseboard and frame
Cast acrylic sheet provides better surface finish
Does not fade or change colour
415mm height excluding cradle
Extra deep for added luxury
No Tap hole",560 mm,1700 mm,700 mm,21 kg,192 L,Acrylic,0,Straight,10,N,52530001000,,VitrA,Neon,415 mm,Single Ended,"//travisperkins.scene7.com/is/content/travisperkins/Bath-Tubs-Vitra-Neon-Luxury-Bath-1700mm-x-700mm~V0585_732125_TECH_0
"
Bath Tubs,Roca The Gap Bath White 1700 x 700mm Z024717000,116528,252.16,302.59,"The Gap bath offers a versatile solution for any bathroom space
Acrylic bath - a practical solution for any bathroom
228 litres
25 year guarantee - offering piece of mind
Rectangular",515 mm,1700 mm,700 mm,,228 L,Acrylic,0,Straight,25,N,24717000,,Roca,The Gap,,,"//travisperkins.scene7.com/is/content/travisperkins/Bath-Tubs-Roca-The-Gap-Bath-White-1700-x-700mm-Z024717000~R0487_116528_TECH_0
"
