category,product_name,product_code,price_ex_vat,price_inc_vat,overview,depth,height,width,colour,number of shelves,unit material,type,years guaranteed,made to order,country origin,brand name,range description,data_sheets
Toilet Units,iflo Aliano WC Unit Walnut and Panel with Pre-cut Service Void 600 x 380mm,957741,166.66,199.99,"The possibilities of creating the perfect bathroom design with iflo Aliano range of furniture are endless.
Rigid construction for ease of installation
Clip on backs to give full access during installation and extra storage space once installed
Service void unit to allow for easier installation of the soil pipe
Pre-installed pneumatic cistern",380 mm,820 mm,600 mm,Walnut,None,High Pressure Laminate,WC Unit,5,N,UK,iflo,iflo Aliano,"//travisperkins.scene7.com/is/content/travisperkins/Toilet-Units-iflo-Aliano-WC-Unit-Walnut-and-Panel-with-Pre-cut-Service-Void-600-x-380mm~W4027_957741_TECH_0
//travisperkins.scene7.com/is/content/travisperkins/Toilet-Units-iflo-Aliano-WC-Unit-Walnut-and-Panel-with-Pre-cut-Service-Void-600-x-380mm~W4027_957741_TECH_1
"
