category,product_name,price_ex_vat,price_inc_vat,product_code,overview,depth,height,width,colour,type,bathroom range,made to order,manufacturer model no,brand name,range description
Vanity Basins,Roca Prisma Wall Vanity Unit 1 Drawer Textured Ash 900mm A856877321,548.48,658.18,154117,"An innovative and versatile collection. With a unique basin design, coupled with straight lines and a variety of dimensions, Prisma is the ideal solution for different bathroom spaces.
One soft-close drawer - which is quieter and safer for all the family
Available in the choice of four colours
Space saving waste to maximise storage space
460mm projection",460 mm,424 mm,890 mm,Textured Ash,Wall Unit,Prisma,N,A856877321,Roca,Prisma
