category,product_name,price_ex_vat,price_inc_vat,product_code,overview,height,length,width,weight,material,colour,hinge colour,close type,type,years guaranteed,made to order,manufacturer model no,brand name,range description
Toilet Seats,Twyford Moda Toilet Seat & Cover Stainless Steel Hinges MD7815WH,81.46,97.75,212034,"Moda Toilet Seat and Cover Stainlee Steel Hinges
Top fix Stainless steel hinge
0 year guarantee
Made from high quality plastic",50 mm,432 mm,352 mm,2.776 kg,Plastic,White,Chrome,Standard Close,Seat & cover,2,N,MD7815WH,Twyford,Moda
