category,product_name,price_ex_vat,price_inc_vat,product_code,overview,thickness,width,material,colour,finish,made to order,brand name,range description
Shower Enclosures & Screens,Multipanel Classic Type A Internal Corner Profile Bright Polished 2450mm,28.11,33.73,257277,"These polished silver aluminium extrusions are used to connect together Multipanel™ classic waterproof wall panels. The channels are siliconed sealed, allowing the panel to slot in, for a neat, unobtrusive finish.
Aluminium
Waterproof
Durable
Four different finishes
0.668 kg weight",11.50 mm,34 mm,Aluminium,Silver,Polished Silver,N,Multipanel,Multipanel ™ Classic Accessories
