category,product_name,price_ex_vat,price_inc_vat,product_code,overview,size,material,colour,colour family,toe cap style,certifications met,type,made to order,country origin,brand name
Footwear,DeWalt Titanium Tan Waterproof Boot Size 12,74.93,74.93,945534,"6 inch Premium Leather Work Boot with a Polyurethane/ Thermo polyurethane Injected Outsole
Hydro Guard Bootie lining
PU/TPU outsole makes the boot light weight and flexible.
Premium water resistant leather
Injected Sole
Removable dual density PU comfort insole",12,Leather,Tan,Browns,Steel,S3-WR SRA,Waterproof Boots,N,China,Dewalt
