category,product_name,price_ex_vat,price_inc_vat,product_code,overview,diameter,material,colour,pack quantity,type,made to order,manufacturer model no,brand name,range description
Squareline Gutter & Fittings,Osma SquareLine 4T811 External Stopend 100mm Black,3.42,4.10,860619,"SquareLine is a square 100mm (4 inch) gutter system with square 61mm downpipe (or 68mm circular pipe via an adaptor)
Fits over SquareLine gutter to blank off one end
Contains retained seal for secure, watertight fit
Conforms to BS EN 607:2004
Range available in Black, White and Brown",100 mm,PVC-U,Black,10,Stopend,N,4T811B,Osma,SquareLine
