category,product_name,price_ex_vat,price_inc_vat,product_code,overview,height,thickness,width,material,finish,type,manufacturer model no,brand name,range description
Joist Hangers,Simpson THA75 Truss Hanger with Adjustable Height Strap,12.55,15.06,885406,"Height adjustable truss hanger
Speed prongs hold the hanger in place, leaving both hands free to install the nails
Location tab allows easier alignment to the carrying timber
Wrap over or face finx installation
Wide strap allows wider nail distribution for enhanced performance",232.50 mm,1.20 mm,75 mm,Pre-galvanised Steel,Galvanised,Joist Hanger,THA,Simpson Strong-Tie,Simpson Truss Hanger & Adjustable Height Strap Tha75
