category,product_name,price_ex_vat,price_inc_vat,product_code,overview,size,colour,type,manufacturer model no,brand name,data_sheets
Flooring Compounds,Sika Grout 212 Cementitious Grout 25Kg,26.77,32.12,520684,"SikaGrout 212 is a single component, flowable, shrinkage compensated cementitious precision grout based on a blend of cements, graded aggregates and admixtures.
Easy to mix and apply - just add water
High compressive strength gain and generally more durable than equivalent class of concrete
Does not segregate or bleed - excellent flow properties
Can be pumped or poured
Grouting thickness between 10-75 mm with low shrinkage
Fire rating and protection properties comparable to concrete
Overcoatable with Sika reprofiling/ leveling mortars and coatings
Pre-batched for quality and has good mechanical properties
Compatible with Sika FerroGard corrosion inhibitors
Contains no chloride admixtures",25 kg,Grey,Grout,1204025,Sika,"//travisperkins.scene7.com/is/content/travisperkins/Flooring-Compounds-Sika-Grout-212-Cementitious-Grout-25Kg~E0184_520684_COSHH_0
"
