https://www.travisperkins.co.uk/Firemax-1kg-Abc-Powder-Extinguisher-C-W-Wire-Bracket-%28FMP1%29/p/326540,
https://www.travisperkins.co.uk/Urfic-Como-Lever-Bathroom-Polished-Brass/p/564306,
https://www.travisperkins.co.uk/Greyland-Lemon-Cleanser-5L-6624-04/p/498839,
https://www.travisperkins.co.uk/Crabtree-Replacement-Short-Skirt-Std-Straight-Batten-Holder-T2-3401/p/729512,
https://www.travisperkins.co.uk/Dulux-Trade-Vinyl-Matt-Moroccan-Flame-5L/p/100239,
https://www.travisperkins.co.uk/Hep2O-Barrier-Pipe-Coil-Push-Fit-15mm-x-50m/p/493026,
https://www.travisperkins.co.uk/Wera-9-Piece-Multicoloured-Hex-Plus-Key-Set/p/325446,
https://www.travisperkins.co.uk/OsmaSoil-4S414G-110mm-Solvent-Socket-Domed-Roof-Outlet-Grey/p/860652,
https://www.travisperkins.co.uk/Fernox-F5-Powerflushing-Cleaner-1L/p/795601,
https://www.travisperkins.co.uk/Stelrad-Softline-Plan-Double-Panel-Double-Convector-%28Type-22--K2%29-Radiator-600mm-x-2000mm/p/728710,
https://www.travisperkins.co.uk/VELUX-Plain-Tile-Flashings-to-suit-MK06-Window-EDP-0000/p/838463,
https://www.travisperkins.co.uk/iflo-Como-Freestanding-Bath-1799/p/315895,
https://www.travisperkins.co.uk/Vitra-Neon-Luxury-Bath-1500mm-x-700mm/p/732123,
https://www.travisperkins.co.uk/Richard-Burbidge-Twist-Metal-Baluster-LD238/p/536384,
https://www.travisperkins.co.uk/Ideal-Standard-Studio-Corner-Pedestal-Washbasin-1-Taphole-Basin-Only-45mmE107001/p/878266,
https://www.travisperkins.co.uk/Bristan-Round-Chrome-Toilet-Roll-Holder/p/679163,
https://www.travisperkins.co.uk/Dulux-Smooth-Masonry-Paint-Pure-Brilliant-White-5L/p/820232,
https://www.travisperkins.co.uk/Werner-75013-Combi-Ladder-3-IN-1/p/542064,
https://www.travisperkins.co.uk/VELUX-Centre-Pivot-Roof-Window-550mm-x-780mm-White-Painted-GGL-CK02-2070/p/359543,
https://www.travisperkins.co.uk/Spectrim-Elka-3in1-White-Oak-Double-Flooring-Bar-2150mm/p/592307,
https://www.travisperkins.co.uk/Roebuck-Yellow-Duster-20%22-x-18%22/p/299438,
https://www.travisperkins.co.uk/Supreme-PAD03-Concrete-Padstone-440mm-x-140mm-x-102mm/p/701718,
https://www.travisperkins.co.uk/Osmaweld-4Z074G-32mm-Plain-Ended-Pipe-Grey-4m/p/861292