
TAP060EM- ELEMENT MONO BASIN MIXER WITH CLICK WASTE,ILLUSTRATION:  ELEMENT MONO BASIN MIXER,BAR CODE: 5060168228680,COLOUR:  CHROME PLATE,NOTES:   SUPPLIED WITH CLICK WASTE,Flow Rate:      L.P,BOX SIZE  220 x 150 x 90 mm,WEIGHT:,NET             0.9 kg    (tap only),GROSS       1.52 kg    ,STANDARDS:   BS EN 200," 1/2"" BSP FLEXI HOSES", CERAMIC DISC CARTRIDGE TECHNOLOGY,0.2bar,0.5bar,1bar,2bar,3bar,6L/min,8.3L/min,11L/min,15.6L/min,19L/min
TAP061EM- ELEMENT BATH SHOWER MIXER,ILLUSTRATION:  ELEMENT BATH SHOWER MIXER,BAR CODE: 5060168228697,COLOUR:  CHROME PLATE,NOTES:   SHOWER HOSE AND HAND SET,Flow Rate:      M.P,BOX SIZE  250 x 170 x 155 mm,WEIGHT:,NET                2.3 kg  (tap only),GROSS           2.97 kg,STANDARDS:   BS EN 200," 3/4"" BSP CONNECTIONS", CERAMIC DISC TECHNOLOGY, WALL BRACKET,0.2bar,0.5bar,1bar,2bar,3bar,7.3L/min,10L/min,13.5L/min,18.9L/min,22.9L/min
TAP062EM - ELEMENT BATH FILLER,ILLUSTRATION:  ELEMENT BATH FILLER,BAR CODE: 5060168228703,COLOUR:  CHROME PLATE,NOTES:   ,Flow Rate:      L.P,BOX SIZE  250 x 170 x 155 mm,WEIGHT:,NET               2.1  kg    (tap only),GROSS          2.37  kg ,STANDARDS:   BS EN 200," 3/4"" BSP CONNECTIONS", CERAMIC DISC TECHNOLOGY, 0.2bar,0.5bar,1bar,2bar,3bar,14.4L/min,19.5L/min,26.5L/min,N/A,N/A
