BOX SIZE  220 x 150 x 90 mm,WEIGHT:,NET              0.98 kg (tap only) ,GROSS         1.6 kg  ,STANDARDS:   BS EN 200," 1/2"" BSP FLEXI HOSES", CERAMIC DISC CARTRIDGE TECHNOLOGY
TAP040LO- LOGIK MONO BASIN MIXER WITH CLICK WASTE,ILLUSTRATION:  LOGIK MONO BASIN MIXER,BAR CODE: 5060168228611,COLOUR:  CHROME PLATE,NOTES:   SUPPLIED WITH CLICK WASTE,Flow Rate:      L.P,0.2bar,0.5bar,1bar,2bar,3bar,4.2L/min,5.8L/min,8.2L/min,11.5L/min,14.1L/min
TAP041LO- LOGIK BATH SHOWER MIXER,ILLUSTRATION:  LOGIK BATH SHOWER MIXER,BAR CODE: 5060168628,COLOUR:  CHROME PLATE,NOTES:   SHOWER HOSE AND HAND SET,Flow Rate:      L.P,BOX SIZE  250 x 160 x 220 mm,WEIGHT:      ,NET               2.0 kg  (tap only),GROSS          2.77 KG,STANDARDS:   BS EN 200," 3/4"" BSP CONNECTIONS", CERAMIC DISC TECHNOLOGY, WALL BRACKET,0.2bar,0.5bar,1bar,2bar,3bar,11.7L/min,16L/min,21.5L/min,29.8L/min
TAP042LO- LOGIK BATH FILLER,ILLUSTRATION:  LOGIK BATH FILLER,BAR CODE: 5060168228635,COLOUR:  CHROME PLATE,NOTES:   ,Flow Rate:      L.P,BOX SIZE  250 x 160 x 210 mm,WEIGHT:,NET             1.9 kg  ,GROSS        2.17 kg   ,STANDARDS:   BS EN 200," 3/4"" BSP CONNECTIONS", CERAMIC DISC TECHNOLOGY,0.2bar,0.5bar,1bar,2bar,3bar,11L/min,17.2L/min,24.3L/min,34 L/min
