BOX SIZE  220 x 150 x 90 mm,WEIGHT:,NET              1.25 kg (tap only) ,GROSS         1.93 kg  ,STANDARDS:   BS EN 200," 1/2"" BSP FLEXI HOSES", CERAMIC DISC CARTRIDGE TECHNOLOGY
TAP050PR- PURE MONO BASIN MIXER WITH CLICK WASTE,ILLUSTRATION:  PURE MONO BASIN MIXER,BAR CODE: 5060168228642,COLOUR:  CHROME PLATE,NOTES:   SUPPLIED WITH CLICK WASTE,Flow Rate:      L.P,0.2bar,0.5bar,1bar,2bar,3bar,4L/min,7.3L/min,10.2L/min,14.6L/min,17.8L/min, 
TAP051PR- PURE BATH SHOWER MIXER,ILLUSTRATION:  PURE BATH SHOWER MIXER,BAR CODE: 5060168228659,COLOUR:  CHROME PLATE,NOTES:   SHOWER HOSE AND HAND SET,Flow Rate:      M.P,BOX SIZE  250 x 160 x 220 mm,WEIGHT:      ,NET               2.83 kg  (tap only),GROSS          3.46 KG,STANDARDS:   BS EN 200," 3/4"" BSP CONNECTIONS", CERAMIC DISC TECHNOLOGY, WALL BRACKET,0.2bar,0.5bar,1bar,2bar,3bar,6L/min,9.3L/min,13.2L/min,18.8L/min,23.2L/min
TAP052PR- PURE BATH FILLER,ILLUSTRATION:  PURE BATH FILLER,BAR CODE: 5060168228666,COLOUR:  CHROME PLATE,NOTES:   ,Flow Rate:      L.P,BOX SIZE  250 x 160 x 210 mm,WEIGHT:,NET             2.65 kg  ,GROSS        2.93 kg   ,STANDARDS:   BS EN 200," 3/4"" BSP CONNECTIONS", CERAMIC DISC TECHNOLOGY,0.2bar,0.5bar,1bar,2bar,3bar,10.2L/min,15.3L/min,21.6L/min,30.9L/min
TAP053PR- PURE FREE STANDING BATH SHOWER MIXER ,ILLUSTRATION:  PURE FREE STANDING B/S MIXER,BAR CODE: 505568228673,COLOUR:  CHROME PLATE,NOTES:   ,Flow Rate:      H.P,BOX SIZE 945 x 305 x 195 mm,WEIGHT:,NET              5.5 kg ,GROSS         7 kg  ,STANDARDS:   BS EN 200, CERAMIC DISC CARTRIDGE TECHNOLOGY,0.2bar,0.5bar,1bar,2bar,3bar,4L/min,7.3L/min,10.2L/min,14.6L/min,17.8L/min
